…
```r
names(austen_books)
```

```
## [1] "gutenberg_id" "text"         "title"
```

```r
austen_books
```

```
## # A tibble: 81,275 × 3
##    gutenberg_id text          title     
##           <int> <chr>         <chr>     
##  1          105 "Persuasion"  Persuasion
##  2          105 ""            Persuasion
##  3          105 ""            Persuasion
##  4          105 "by"          Persuasion
##  5          105 ""            Persuasion
##  6          105 "Jane Austen" Persuasion
##  7          105 ""            Persuasion
##  8          105 "(1818)"      Persuasion
##  9          105 ""            Persuasion
## 10          105 ""            Persuasion
## # … with 81,265 more rows
```
…
```r
nrow(words)
```

```
## [1] 782299
```

```r
words
```

```
## # A tibble: 782,299 × 3
##    gutenberg_id title      word      
##           <int> <chr>      <chr>     
##  1          105 Persuasion persuasion
##  2          105 Persuasion by        
##  3          105 Persuasion jane      
##  4          105 Persuasion austen    
##  5          105 Persuasion <NA>      
##  6          105 Persuasion chapter   
##  7          105 Persuasion <NA>      
##  8          105 Persuasion sir       
##  9          105 Persuasion walter    
## 10          105 Persuasion elliot    
## # … with 782,289 more rows
```
Count words per book, dropping "stop" words first.

```r
book_word_counts <- words |>
  anti_join(stop_words, by="word") |>
  count(title, word, sort=TRUE)
```


```r
book_word_counts
```

```
## # A tibble: 42,326 × 3
##    title                 word          n
##    <chr>                 <chr>     <int>
##  1 Mansfield Park        fanny       925
##  2 Emma                  emma        865
##  3 Sense and Sensibility elinor      685
##  4 Pride and Prejudice   elizabeth   634
##  5 Mansfield Park        crawford    605
##  6 Emma                  miss        602
##  7 Sense and Sensibility marianne    566
##  8 Emma                  harriet     506
##  9 Northanger Abbey      catherine   487
## 10 Persuasion            anne        447
## # … with 42,316 more rows
```
…
```r
nrow(book_hapax_words)
```

```
## [1] 18773
```

```r
book_hapax_words
```

```
## # A tibble: 18,773 × 3
##    title                     word          n
##    <chr>                     <chr>     <int>
##  1 Persuasion                a'n't         1
##  2 Sense and Sensibility     abandoned     1
##  3 Love and Freindship [sic] abashed       1
##  4 Mansfield Park            abashed       1
##  5 Mansfield Park            abatement     1
##  6 Northanger Abbey          abatement     1
##  7 Pride and Prejudice       abatement     1
##  8 Sense and Sensibility     abatement     1
##  9 Mansfield Park            abating       1
## 10 Mansfield Park            abbey         1
## # … with 18,763 more rows
```
…
