…
```r
names(dickens_books)
```

```
## [1] "gutenberg_id" "text"         "title"
```

```r
dickens_books
```

```
## # A tibble: 451,952 × 3
##    gutenberg_id text                               title               
##           <int> <chr>                              <chr>               
##  1           98 "A TALE OF TWO CITIES"             A Tale of Two Cities
##  2           98 ""                                 A Tale of Two Cities
##  3           98 "A STORY OF THE FRENCH REVOLUTION" A Tale of Two Cities
##  4           98 ""                                 A Tale of Two Cities
##  5           98 "By Charles Dickens"               A Tale of Two Cities
##  6           98 ""                                 A Tale of Two Cities
##  7           98 ""                                 A Tale of Two Cities
##  8           98 "CONTENTS"                         A Tale of Two Cities
##  9           98 ""                                 A Tale of Two Cities
## 10           98 ""                                 A Tale of Two Cities
## # … with 451,942 more rows
```
…
```r
nrow(words)
```

```
## [1] 4037486
```

```r
words
```

```
## # A tibble: 4,037,486 × 3
##    gutenberg_id title                word  
##           <int> <chr>                <chr> 
##  1           98 A Tale of Two Cities a     
##  2           98 A Tale of Two Cities tale  
##  3           98 A Tale of Two Cities of    
##  4           98 A Tale of Two Cities two   
##  5           98 A Tale of Two Cities cities
##  6           98 A Tale of Two Cities a     
##  7           98 A Tale of Two Cities story 
##  8           98 A Tale of Two Cities of    
##  9           98 A Tale of Two Cities the   
## 10           98 A Tale of Two Cities french
## # … with 4,037,476 more rows
```
Count words per book, dropping "stop" words first.

```r
book_word_counts <- words |>
  anti_join(stop_words, by="word") |>
  count(title, word, sort=TRUE)
```


```r
book_word_counts
```

```
## # A tibble: 204,239 × 3
##    title               word          n
##    <chr>               <chr>     <int>
##  1 The Pickwick Papers pickwick   2175
##  2 Dombey and Son      dombey     1777
##  3 Nicholas Nickleby   nicholas   1680
##  4 The Pickwick Papers sir        1536
##  5 Dombey and Son      captain    1307
##  6 Our Mutual Friend   boffin     1259
##  7 Martin Chuzzlewit   pecksniff  1257
##  8 Martin Chuzzlewit   tom        1243
##  9 Dombey and Son      florence   1200
## 10 The Pickwick Papers sam        1160
## # … with 204,229 more rows
```
…
```r
nrow(book_hapax_words)
```

```
## [1] 87901
```

```r
book_hapax_words
```

```
## # A tibble: 87,901 × 3
##    title                                         word           n
##    <chr>                                         <chr>      <int>
##  1 Martin Chuzzlewit                             a'mighty's     1
##  2 Barnaby Rudge: A Tale of the Riots of 'Eighty a'most         1
##  3 Bleak House                                   a'most         1
##  4 Barnaby Rudge: A Tale of the Riots of 'Eighty a'purpose      1
##  5 Martin Chuzzlewit                             a'purpose      1
##  6 Nicholas Nickleby                             a've           1
##  7 A Tale of Two Cities                          aback          1
##  8 Bleak House                                   aback          1
##  9 David Copperfield                             aback          1
## 10 Great Expectations                            aback          1
## # … with 87,891 more rows
```
…
